Iteration
…
Here is where we load the packages we will use.

# Loading packages
library(tidyverse) # for data wrangling and plotting
library(janitor) # clean column names
library(knitr) # for figure displaying

Reading data.

nematode <- read_csv("../data/03_nematode_rs.csv")

nematode

# A tibble: 43 × 18
   site  sampleid mel_s  pb_s het_s sum_s  mel_r  pb_r  het_r  sum_r  sum_t
   <chr>    <dbl> <dbl> <dbl> <dbl> <dbl>  <dbl> <dbl>  <dbl>  <dbl>  <dbl>
 1 a            1    32     0     0    32  1402.   0     7.27  1482.  1514.
 2 a            2    28     0     0    28  1410   50     8     1630.  1658.
 3 a            3    24     0    28    52   466. 114.   13.7   1169.  1221.
 4 a            4    20     0    20    40   537. 105.    0     1042.  1082.
 5 a            5    28     0     0    28 11143.   0     0    11829. 11857.
 6 a            6     8     0    48    56  2154.  57.1 171.   14140  14196 
 7 a            7     4     0    12    16  1685. 107.   26.7  11712  11728 
 8 a            8     0     0     0     0   242.  12.5   6.25   439.   439.
 9 a            9     4     0    20    24   800    0    27.6   7190.  7214.
10 a           10    20     0    28    48  5160   85.7 343.    8067.  8115.
# ℹ 33 more rows
# ℹ 7 more variables: eggs_r <dbl>, yield_kgha <dbl>, b <dbl>, g <dbl>,
#   nir <dbl>, r <dbl>, re <dbl>
…
3) Function writing - ndvi

The first step will be to calculate 10 different vegetation indices.

Vegetation indices represent different ways of combining reflectance data from different bands. One of the main formats of vegetation indices is the normalized difference vegetation index, that takes the form of:

\[ ndvi = \dfrac{(nir - vis)}{(nir + vis)}\] where nir is reflectance from the near-infrared band, and vis is reflectance from any band from the visible region (blue, red, green, red-edge).

One example of creating ndvi for the nir and red bands would be:

nematode %>%
  mutate(rndvi = (nir - r)/(nir + r))

# A tibble: 43 × 19
   site  sampleid mel_s  pb_s het_s sum_s  mel_r  pb_r  het_r  sum_r  sum_t
   <chr>    <dbl> <dbl> <dbl> <dbl> <dbl>  <dbl> <dbl>  <dbl>  <dbl>  <dbl>
 1 a            1    32     0     0    32  1402.   0     7.27  1482.  1514.
 2 a            2    28     0     0    28  1410   50     8     1630.  1658.
 3 a            3    24     0    28    52   466. 114.   13.7   1169.  1221.
 4 a            4    20     0    20    40   537. 105.    0     1042.  1082.
 5 a            5    28     0     0    28 11143.   0     0    11829. 11857.
 6 a            6     8     0    48    56  2154.  57.1 171.   14140  14196 
 7 a            7     4     0    12    16  1685. 107.   26.7  11712  11728 
 8 a            8     0     0     0     0   242.  12.5   6.25   439.   439.
 9 a            9     4     0    20    24   800    0    27.6   7190.  7214.
10 a           10    20     0    28    48  5160   85.7 343.    8067.  8115.
# ℹ 33 more rows
# ℹ 8 more variables: eggs_r <dbl>, yield_kgha <dbl>, b <dbl>, g <dbl>,
#   nir <dbl>, r <dbl>, re <dbl>, rndvi <dbl>
…
The function name is ndvi. It takes 2 arguments:

- nir: a vector with data on the near-infrared reflectance

- vis: a vector with data on one of the visible bands reflectance

The function returns a vector with the result of the ndvi calculation using the specific nir and visibile band information provided.

Let’s see how that would compare to the previous step:

nematode %>%
  mutate(rndvi = ndvi(nir, r))

# A tibble: 43 × 19
   site  sampleid mel_s  pb_s het_s sum_s  mel_r  pb_r  het_r  sum_r  sum_t
   <chr>    <dbl> <dbl> <dbl> <dbl> <dbl>  <dbl> <dbl>  <dbl>  <dbl>  <dbl>
 1 a            1    32     0     0    32  1402.   0     7.27  1482.  1514.
 2 a            2    28     0     0    28  1410   50     8     1630.  1658.
 3 a            3    24     0    28    52   466. 114.   13.7   1169.  1221.
 4 a            4    20     0    20    40   537. 105.    0     1042.  1082.
 5 a            5    28     0     0    28 11143.   0     0    11829. 11857.
 6 a            6     8     0    48    56  2154.  57.1 171.   14140  14196 
 7 a            7     4     0    12    16  1685. 107.   26.7  11712  11728 
 8 a            8     0     0     0     0   242.  12.5   6.25   439.   439.
 9 a            9     4     0    20    24   800    0    27.6   7190.  7214.
10 a           10    20     0    28    48  5160   85.7 343.    8067.  8115.
# ℹ 33 more rows
# ℹ 8 more variables: eggs_r <dbl>, yield_kgha <dbl>, b <dbl>, g <dbl>,
#   nir <dbl>, r <dbl>, re <dbl>, rndvi <dbl>
…
  # Calculating other non-ndvi-based indices
  # For reference, see paper.
  mutate(sr = nir/r,
        rdvi = ((nir-r)/(nir+r))^2,
        savi = (((1+0.5)*(nir-r))/(nir+r+0.16)),
        vari = (g-r)/(g+r-b),
        evi = 2.5*(nir-r)/(nir+(6*r)-(7.5*b))+1,
        nli=  ((nir^2)-r)/((nir^2)+r))

nematode_w 

# A tibble: 43 × 28
   site  sampleid mel_s  pb_s het_s sum_s  mel_r  pb_r  het_r  sum_r  sum_t
   <chr>    <dbl> <dbl> <dbl> <dbl> <dbl>  <dbl> <dbl>  <dbl>  <dbl>  <dbl>
 1 a            1    32     0     0    32  1402.   0     7.27  1482.  1514.
 2 a            2    28     0     0    28  1410   50     8     1630.  1658.
 3 a            3    24     0    28    52   466. 114.   13.7   1169.  1221.
 4 a            4    20     0    20    40   537. 105.    0     1042.  1082.
 5 a            5    28     0     0    28 11143.   0     0    11829. 11857.
 6 a            6     8     0    48    56  2154.  57.1 171.   14140  14196 
 7 a            7     4     0    12    16  1685. 107.   26.7  11712  11728 
 8 a            8     0     0     0     0   242.  12.5   6.25   439.   439.
 9 a            9     4     0    20    24   800    0    27.6   7190.  7214.
10 a           10    20     0    28    48  5160   85.7 343.    8067.  8115.
# ℹ 33 more rows
# ℹ 17 more variables: eggs_r <dbl>, yield_kgha <dbl>, b <dbl>, g <dbl>,
#   nir <dbl>, r <dbl>, re <dbl>, rndvi <dbl>, gndvi <dbl>, bndvi <dbl>,
#   rendvi <dbl>, sr <dbl>, rdvi <dbl>, savi <dbl>, vari <dbl>, evi <dbl>,
#   nli <dbl>
…
A for loop iterates through positions in a vector and apply the same task to each position, returning a result for each of them.

Now, let’s say I wanted to calculate the mean and CV for each of the response and explanatory variable columns in our data set.

Since we will be performing the same task across many columns, we could create a loop where, for each column,

- we apply the function meancv, - the function returns back the mean and CV, - the loop appends all the results together

Loops are very useful when repeating the same task across different scenarios.

In this case, the task being repeated is to calculate mean and CV, and the different scenarios are the columns.

nematode_w

# A tibble: 43 × 28
   site  sampleid mel_s  pb_s het_s sum_s  mel_r  pb_r  het_r  sum_r  sum_t
   <chr>    <dbl> <dbl> <dbl> <dbl> <dbl>  <dbl> <dbl>  <dbl>  <dbl>  <dbl>
 1 a            1    32     0     0    32  1402.   0     7.27  1482.  1514.
 2 a            2    28     0     0    28  1410   50     8     1630.  1658.
 3 a            3    24     0    28    52   466. 114.   13.7   1169.  1221.
 4 a            4    20     0    20    40   537. 105.    0     1042.  1082.
 5 a            5    28     0     0    28 11143.   0     0    11829. 11857.
 6 a            6     8     0    48    56  2154.  57.1 171.   14140  14196 
 7 a            7     4     0    12    16  1685. 107.   26.7  11712  11728 
 8 a            8     0     0     0     0   242.  12.5   6.25   439.   439.
 9 a            9     4     0    20    24   800    0    27.6   7190.  7214.
10 a           10    20     0    28    48  5160   85.7 343.    8067.  8115.
# ℹ 33 more rows
# ℹ 17 more variables: eggs_r <dbl>, yield_kgha <dbl>, b <dbl>, g <dbl>,
#   nir <dbl>, r <dbl>, re <dbl>, rndvi <dbl>, gndvi <dbl>, bndvi <dbl>,
#   rendvi <dbl>, sr <dbl>, rdvi <dbl>, savi <dbl>, vari <dbl>, evi <dbl>,
#   nli <dbl>
…
